<?xml version="1.0" encoding="utf-8"?>
<!-- Generator: Adobe Illustrator 21.1.0, SVG Export Plug-In . SVG Version: 6.00 Build 0)  -->
<svg version="1.1" id="Calque_1" xmlns="http://www.w3.org/2000/svg" xmlns:xlink="http://www.w3.org/1999/xlink" x="0px" y="0px"
	 viewBox="0 0 180 70" style="enable-background:new 0 0 180 70;" xml:space="preserve">
<style type="text/css">
	.st0{fill:#0A0A0A;}
</style>
<path class="st0" d="M23.7,42.9c-0.1,0-0.1,0-0.2,0c-0.3,0.1-0.7,0.1-1.1,0.1c-0.4,0-0.9,0-1.3-0.1c-0.4,0-0.7-0.1-0.9-0.3
	c0,0,0,0,0,0c0,0-0.1-0.1-0.1-0.1c-0.8-0.7-0.8-2.2,0.6-2.5c0.1,0,0.2,0,0.3,0c0.7-0.1,1.7-0.1,2.3,0c0,0,0,0,0,0
	C25.3,39.9,25.5,42.5,23.7,42.9z M41,35.4C41,35.4,41,35.4,41,35.4C41.1,35.4,41.1,35.4,41,35.4C41,35.4,41,35.4,41,35.4z M41,35.4
	C41,35.4,41,35.4,41,35.4C41.1,35.4,41.1,35.4,41,35.4c0.1,0.1,0.1,0.2,0.2,0.2c0.2,0.2,0.5,0.3,0.8,0.3c0.4,0,0.8,0.1,1.3,0.1
	c0.4,0,0.7,0,1.1-0.1c0.1,0,0.1,0,0.2,0c1.8-0.3,1.6-3-0.3-3c0,0,0,0,0,0c-0.7-0.1-1.6-0.1-2.3,0c-0.1,0-0.2,0-0.3,0
	C40.3,33.3,40.3,34.7,41,35.4C41,35.4,41,35.4,41,35.4z M34.2,35.5C34.2,35.5,34.2,35.6,34.2,35.5c0.2,0.2,0.5,0.3,0.9,0.3
	c0.4,0,0.8,0.1,1.3,0.1c0.4,0,0.7,0,1-0.1c0.1,0,0.1,0,0.2,0c1.8-0.3,1.6-3-0.3-3c-0.7-0.1-1.6-0.1-2.3,0c-0.1,0-0.2,0-0.3,0
	c-1.4,0.3-1.4,1.8-0.6,2.5C34.1,35.5,34.2,35.5,34.2,35.5z M27.2,35.5C27.2,35.5,27.3,35.6,27.2,35.5c0.3,0.2,0.5,0.3,0.9,0.3
	c0,0,0,0,0,0c0.4,0,0.8,0.1,1.3,0.1c0.4,0,0.7,0,1.1-0.1c0.1,0,0.1,0,0.2,0c1.8-0.3,1.6-3-0.3-3c0,0,0,0,0,0c-0.7-0.1-1.6-0.1-2.3,0
	c-0.1,0-0.2,0-0.3,0c-1.4,0.3-1.4,1.8-0.6,2.5C27.2,35.5,27.2,35.5,27.2,35.5z M23.4,46.9C23.4,46.9,23.4,46.9,23.4,46.9
	c-0.7-0.1-1.6-0.1-2.3,0c-0.1,0-0.2,0-0.3,0c-1.4,0.3-1.4,1.8-0.6,2.5c0,0,0.1,0.1,0.1,0.1c0,0,0,0,0,0c0.2,0.2,0.5,0.3,0.9,0.3
	c0.4,0,0.8,0.1,1.3,0.1c0.4,0,0.7,0,1.1-0.1c0.1,0,0.1,0,0.2,0C25.5,49.5,25.3,46.9,23.4,46.9z M20.3,35.5
	C20.3,35.5,20.3,35.6,20.3,35.5c0.2,0.2,0.5,0.3,0.9,0.3c0.4,0,0.8,0.1,1.3,0.1c0.4,0,0.7,0,1.1-0.1c0.1,0,0.1,0,0.2,0
	c1.8-0.3,1.6-3-0.3-3c0,0,0,0,0,0c-0.7-0.1-1.6-0.1-2.3,0c-0.1,0-0.2,0-0.3,0c-1.4,0.3-1.4,1.8-0.6,2.5
	C20.2,35.5,20.2,35.5,20.3,35.5z M16.4,46.9C16.4,46.9,16.4,46.9,16.4,46.9c-0.7-0.1-1.6-0.1-2.3,0c-0.1,0-0.2,0-0.3,0
	c-1.4,0.3-1.4,1.8-0.6,2.5c0,0,0.1,0.1,0.1,0.1c0,0,0,0,0,0c0.2,0.2,0.5,0.3,0.9,0.3c0.4,0,0.8,0.1,1.3,0.1c0.4,0,0.7,0,1.1-0.1
	c0.1,0,0.1,0,0.2,0C18.5,49.5,18.3,46.9,16.4,46.9z M30.4,46.9C30.4,46.9,30.4,46.9,30.4,46.9c-0.7-0.1-1.6-0.1-2.3,0
	c-0.1,0-0.2,0-0.3,0c-1.4,0.3-1.4,1.8-0.6,2.5c0,0,0.1,0.1,0.1,0.1c0,0,0,0,0,0c0.2,0.2,0.5,0.3,0.9,0.3c0,0,0,0,0,0
	c0.4,0,0.8,0.1,1.3,0.1c0.4,0,0.7,0,1.1-0.1c0.1,0,0.1,0,0.2,0C32.5,49.5,32.2,46.9,30.4,46.9z M16.4,39.9
	C16.4,39.9,16.4,39.9,16.4,39.9c-0.7-0.1-1.6-0.1-2.3,0c-0.1,0-0.2,0-0.3,0c-1.4,0.3-1.4,1.8-0.6,2.5c0,0,0.1,0.1,0.1,0.1
	c0,0,0,0,0,0c0.2,0.2,0.5,0.3,0.9,0.3c0.4,0,0.8,0.1,1.3,0.1c0.4,0,0.7,0,1.1-0.1c0.1,0,0.1,0,0.2,0C18.5,42.5,18.3,39.9,16.4,39.9z
	 M44.3,39.9C44.3,39.9,44.3,39.9,44.3,39.9c-0.7-0.1-1.6-0.1-2.3,0c-0.1,0-0.2,0-0.3,0c-1.4,0.3-1.4,1.8-0.6,2.5c0,0,0,0,0,0
	c0,0,0,0,0,0c0,0,0,0,0,0c0.1,0.1,0.1,0.1,0.2,0.2c0.2,0.2,0.5,0.3,0.8,0.3c0.4,0,0.8,0.1,1.3,0.1c0.4,0,0.7,0,1.1-0.1
	c0.1,0,0.1,0,0.2,0C46.4,42.5,46.1,39.9,44.3,39.9z M41,42.4C41,42.4,41,42.4,41,42.4C41.1,42.4,41.1,42.4,41,42.4
	C41,42.4,41,42.4,41,42.4z M20.2,35.4c0,0,0.1,0.1,0.1,0.1c0,0,0,0,0,0c0.2,0.2,0.5,0.3,0.9,0.3c0.4,0,0.8,0.1,1.3,0.1
	c0.4,0,0.7,0,1.1-0.1c0.1,0,0.1,0,0.2,0c1.8-0.3,1.6-3-0.3-3c0,0,0,0,0,0c-0.7-0.1-1.6-0.1-2.3,0c-0.1,0-0.2,0-0.3,0
	C19.4,33.3,19.4,34.7,20.2,35.4z M16.4,46.9C16.4,46.9,16.4,46.9,16.4,46.9c-0.7-0.1-1.6-0.1-2.3,0c-0.1,0-0.2,0-0.3,0
	c-1.4,0.3-1.4,1.8-0.6,2.5c0,0,0.1,0.1,0.1,0.1c0,0,0,0,0,0c0.2,0.2,0.5,0.3,0.9,0.3c0.4,0,0.8,0.1,1.3,0.1c0.4,0,0.7,0,1.1-0.1
	c0.1,0,0.1,0,0.2,0C18.5,49.5,18.3,46.9,16.4,46.9z M16.4,39.9C16.4,39.9,16.4,39.9,16.4,39.9c-0.7-0.1-1.6-0.1-2.3,0
	c-0.1,0-0.2,0-0.3,0c-1.4,0.3-1.4,1.8-0.6,2.5c0,0,0.1,0.1,0.1,0.1c0,0,0,0,0,0c0.2,0.2,0.5,0.3,0.9,0.3c0.4,0,0.8,0.1,1.3,0.1
	c0.4,0,0.7,0,1.1-0.1c0.1,0,0.1,0,0.2,0C18.5,42.5,18.3,39.9,16.4,39.9z M23.4,46.9C23.4,46.9,23.4,46.9,23.4,46.9
	c-0.7-0.1-1.6-0.1-2.3,0c-0.1,0-0.2,0-0.3,0c-1.4,0.3-1.4,1.8-0.6,2.5c0,0,0.1,0.1,0.1,0.1c0,0,0,0,0,0c0.2,0.2,0.5,0.3,0.9,0.3
	c0.4,0,0.8,0.1,1.3,0.1c0.4,0,0.7,0,1.1-0.1c0.1,0,0.1,0,0.2,0C25.5,49.5,25.3,46.9,23.4,46.9z M41,35.4c0.1,0.1,0.1,0.1,0.2,0.2
	c0.2,0.2,0.5,0.3,0.8,0.3c0.4,0,0.8,0.1,1.3,0.1c0.4,0,0.7,0,1.1-0.1c0.1,0,0.1,0,0.2,0c1.8-0.3,1.6-3-0.3-3c0,0,0,0,0,0
	c-0.7-0.1-1.6-0.1-2.3,0c-0.1,0-0.2,0-0.3,0C40.3,33.3,40.3,34.7,41,35.4z M34.1,35.4c0,0,0.1,0.1,0.1,0.1c0,0,0,0,0,0
	c0.2,0.2,0.5,0.3,0.9,0.3c0.4,0,0.8,0.1,1.3,0.1c0.4,0,0.7,0,1-0.1c0.1,0,0.1,0,0.2,0c1.8-0.3,1.6-3-0.3-3c-0.7-0.1-1.6-0.1-2.3,0
	c-0.1,0-0.2,0-0.3,0C33.3,33.3,33.3,34.7,34.1,35.4z M27.1,35.4c0,0,0.1,0.1,0.1,0.1c0,0,0,0,0,0c0.2,0.2,0.5,0.3,0.9,0.3
	c0,0,0,0,0,0c0.4,0,0.8,0.1,1.3,0.1c0.4,0,0.7,0,1.1-0.1c0.1,0,0.1,0,0.2,0c1.8-0.3,1.6-3-0.3-3c0,0,0,0,0,0c-0.7-0.1-1.6-0.1-2.3,0
	c-0.1,0-0.2,0-0.3,0C26.4,33.3,26.3,34.7,27.1,35.4z M30.4,46.9C30.4,46.9,30.4,46.9,30.4,46.9c-0.7-0.1-1.6-0.1-2.3,0
	c-0.1,0-0.2,0-0.3,0c-1.4,0.3-1.4,1.8-0.6,2.5c0,0,0.1,0.1,0.1,0.1c0,0,0,0,0,0c0.2,0.2,0.5,0.3,0.9,0.3c0,0,0,0,0,0
	c0.4,0,0.8,0.1,1.3,0.1c0.4,0,0.7,0,1.1-0.1c0.1,0,0.1,0,0.2,0C32.5,49.5,32.2,46.9,30.4,46.9z M30.4,39.9
	C30.4,39.9,30.4,39.9,30.4,39.9c-0.7-0.1-1.6-0.1-2.3,0c-0.1,0-0.2,0-0.3,0c-1.4,0.3-1.4,1.8-0.6,2.5c0,0,0.1,0.1,0.1,0.1
	c0,0,0,0,0,0c0.2,0.2,0.5,0.3,0.9,0.3c0,0,0,0,0,0c0.4,0,0.8,0.1,1.3,0.1c0.4,0,0.7,0,1.1-0.1c0.1,0,0.1,0,0.2,0
	C32.5,42.5,32.2,39.9,30.4,39.9z M37.3,46.9c-0.7-0.1-1.6-0.1-2.3,0c-0.1,0-0.2,0-0.3,0c-1.4,0.3-1.4,1.8-0.6,2.5
	c0,0,0.1,0.1,0.1,0.1c0,0,0,0,0,0c0.2,0.2,0.5,0.3,0.9,0.3c0.4,0,0.8,0.1,1.3,0.1c0.4,0,0.7,0,1.1-0.1c0.1,0,0.1,0,0.2,0
	C39.4,49.5,39.2,46.9,37.3,46.9z M37.3,39.9c-0.7-0.1-1.6-0.1-2.3,0c-0.1,0-0.2,0-0.3,0c-1.4,0.3-1.4,1.8-0.6,2.5
	c0,0,0.1,0.1,0.1,0.1c0,0,0,0,0,0c0.2,0.2,0.5,0.3,0.9,0.3c0.4,0,0.8,0.1,1.3,0.1c0.4,0,0.7,0,1.1-0.1c0.1,0,0.1,0,0.2,0
	C39.4,42.5,39.2,39.9,37.3,39.9z M44.3,46.9C44.3,46.9,44.3,46.9,44.3,46.9c-0.7-0.1-1.6-0.1-2.3,0c-0.1,0-0.2,0-0.3,0
	c-1.4,0.3-1.4,1.8-0.6,2.5c0.1,0.1,0.1,0.1,0.2,0.2c0.2,0.2,0.5,0.3,0.8,0.3c0.4,0,0.8,0.1,1.3,0.1c0.4,0,0.7,0,1.1-0.1
	c0.1,0,0.1,0,0.2,0C46.4,49.5,46.1,46.9,44.3,46.9z M44.3,39.9C44.3,39.9,44.3,39.9,44.3,39.9c-0.7-0.1-1.6-0.1-2.3,0
	c-0.1,0-0.2,0-0.3,0c-1.4,0.3-1.4,1.8-0.6,2.5c0.1,0.1,0.1,0.1,0.2,0.2c0.2,0.2,0.5,0.3,0.8,0.3c0.4,0,0.8,0.1,1.3,0.1
	c0.4,0,0.7,0,1.1-0.1c0.1,0,0.1,0,0.2,0C46.4,42.5,46.1,39.9,44.3,39.9z M54,19.7c0,7.1,0,14.3,0,21.4c0,3.1,0,6.1,0,9.2
	c0,3.2-0.5,6.4-3,8.6c-2.1,1.9-4.6,1.8-7.2,1.8c-3.3,0-6.7,0-10,0c-6.9,0-13.8,0-20.7,0c-0.8,0-1.6,0-2.3-0.1
	c-2.8-0.5-5.2-2.6-6.4-5.2c-1-2.2-0.8-4.7-0.8-7.1c0-7.6,0-15.1,0-22.7c0-2.3,0-4.6,0-7c0-4.8,3.9-7.4,8.4-7.5c1.6,0,3.2,0,4.8,0
	c0.8,0,0.8,0.1,0.8-0.6c0-0.8-0.2-2,0.4-2.6c1-1,2.1,0.2,2.1,1.2c0,0.3-0.2,1.8,0,2c0.1,0.1,0.6,0,0.7,0c0.6,0,1.2,0,1.8,0
	c3.9,0,7.7,0,11.6,0c0.7,0,1.4,0,2.2,0c0.2,0,0.9,0.1,1.1,0c0.2-0.2,0.1-1.1,0.1-1.4c0-0.9,0-2.2,1.2-2.2c1.2,0,1.2,1.2,1.2,2.1
	c0,0.4-0.2,1.3,0.2,1.5c0.5,0.2,1.7,0,2.3,0c1,0,1.9,0,2.9,0c1.9,0,3.8,0,5.5,1C53.6,13.7,54,16.8,54,19.7z M51.5,27.4
	c0-0.4,0.1-0.3-0.1-0.4c-0.3-0.1-1,0-1.3,0c-5,0-10,0-15,0c-6.4,0-12.9,0-19.3,0c-3.2,0-6.5,0-9.7,0c0,0.4,0,0.8,0,1.2
	c0,5.8,0,11.7,0,17.5c0,1.9,0,3.9,0,5.8c0,3.2,2.9,6.5,6.2,6.6c4.3,0.1,8.7,0,13.1,0c6,0,12.1,0,18.1,0c1.2,0,2.6,0.1,3.8-0.1
	c3.3-0.5,4.4-4.2,4.4-7.1c0-5.7,0-11.4,0-17C51.5,31.8,51.6,29.6,51.5,27.4z M51.4,17.6c-0.4-3-3-4-5.7-4c-1.9,0-3.9,0-5.8,0
	c0,1,0.2,2.6-1,2.8c-0.9,0.2-1.4-0.5-1.5-1.3c0-0.3,0.2-1.3,0-1.5c-0.1-0.2-0.6-0.1-0.9-0.1c-2,0-4.1,0-6.1,0c-2.4,0-4.8,0-7.3,0
	c-0.6,0-3-0.3-3.3,0.1c-0.2,0.4,0.1,1.2-0.1,1.7c-0.2,0.7-0.9,1.2-1.6,1c-0.7-0.3-0.8-1-0.8-1.6c0-0.2,0.1-1,0-1.2
	c-0.1-0.1-0.8,0-0.9,0c-0.6,0-1.2,0-1.7,0c-0.9,0-1.8,0-2.7,0c-3,0.1-6,1.7-6.1,4.9c0,1,0,2.1,0,3.1c0,0.6,0,1.2,0,1.7
	c0,0.1-0.1,0.7,0,0.8c0.2,0.2,1.4,0,1.6,0c1.5,0,2.9,0,4.4,0c4.6,0,9.1,0,13.7,0c8.1,0,16.2,0,24.3,0c0.2,0,0.5,0,0.7,0
	c0.7,0,0.9,0.2,0.9-0.5C51.5,21.7,51.7,19.6,51.4,17.6z M30.4,39.9C30.4,39.9,30.4,39.9,30.4,39.9c-0.7-0.1-1.6-0.1-2.3,0
	c-0.1,0-0.2,0-0.3,0c-1.4,0.3-1.4,1.8-0.6,2.5c0,0,0.1,0.1,0.1,0.1c0,0,0,0,0,0c0.2,0.2,0.5,0.3,0.9,0.3c0,0,0,0,0,0
	c0.4,0,0.8,0.1,1.3,0.1c0.4,0,0.7,0,1.1-0.1c0.1,0,0.1,0,0.2,0C32.5,42.5,32.2,39.9,30.4,39.9z M37.3,46.9c-0.7-0.1-1.6-0.1-2.3,0
	c-0.1,0-0.2,0-0.3,0c-1.4,0.3-1.4,1.8-0.6,2.5c0,0,0.1,0.1,0.1,0.1c0,0,0,0,0,0c0.2,0.2,0.5,0.3,0.9,0.3c0.4,0,0.8,0.1,1.3,0.1
	c0.4,0,0.7,0,1.1-0.1c0.1,0,0.1,0,0.2,0C39.4,49.5,39.2,46.9,37.3,46.9z M44.3,46.9C44.3,46.9,44.3,46.9,44.3,46.9
	c-0.7-0.1-1.6-0.1-2.3,0c-0.1,0-0.2,0-0.3,0c-1.4,0.3-1.4,1.8-0.6,2.5c0,0,0,0,0,0c0,0,0,0,0,0c0,0,0,0,0,0c0.1,0.1,0.1,0.1,0.2,0.2
	c0.2,0.2,0.5,0.3,0.8,0.3c0.4,0,0.8,0.1,1.3,0.1c0.4,0,0.7,0,1.1-0.1c0.1,0,0.1,0,0.2,0C46.4,49.5,46.1,46.9,44.3,46.9z M37.3,39.9
	c-0.7-0.1-1.6-0.1-2.3,0c-0.1,0-0.2,0-0.3,0c-1.4,0.3-1.4,1.8-0.6,2.5c0,0,0.1,0.1,0.1,0.1c0,0,0,0,0,0c0.2,0.2,0.5,0.3,0.9,0.3
	c0.4,0,0.8,0.1,1.3,0.1c0.4,0,0.7,0,1.1-0.1c0.1,0,0.1,0,0.2,0C39.4,42.5,39.2,39.9,37.3,39.9z M41,49.4C41,49.4,41,49.4,41,49.4
	C41.1,49.4,41.1,49.4,41,49.4C41,49.4,41,49.4,41,49.4z"/>
<path class="st0" d="M85,42.9c-0.1,0-0.1,0-0.2,0c-0.3,0.1-0.7,0.1-1.1,0.1c-0.4,0-0.9,0-1.3-0.1c-0.4,0-0.7-0.1-0.9-0.3
	c0,0,0,0,0,0c0,0-0.1-0.1-0.1-0.1c-0.8-0.7-0.8-2.2,0.6-2.5c0.1,0,0.2,0,0.3,0c0.7-0.1,1.7-0.1,2.3,0c0,0,0,0,0,0
	C86.5,39.9,86.8,42.5,85,42.9z M102.3,35.4C102.3,35.4,102.3,35.4,102.3,35.4C102.3,35.4,102.3,35.4,102.3,35.4
	C102.3,35.4,102.3,35.4,102.3,35.4z M102.3,35.4C102.3,35.4,102.3,35.4,102.3,35.4C102.3,35.4,102.3,35.4,102.3,35.4
	c0.1,0.1,0.1,0.2,0.2,0.2c0.2,0.2,0.5,0.3,0.8,0.3c0.4,0,0.8,0.1,1.3,0.1c0.4,0,0.7,0,1.1-0.1c0.1,0,0.1,0,0.2,0
	c1.8-0.3,1.6-3-0.3-3c0,0,0,0,0,0c-0.7-0.1-1.6-0.1-2.3,0c-0.1,0-0.2,0-0.3,0C101.6,33.3,101.5,34.7,102.3,35.4
	C102.3,35.4,102.3,35.4,102.3,35.4z M95.5,35.5C95.5,35.5,95.5,35.6,95.5,35.5c0.2,0.2,0.5,0.3,0.9,0.3c0.4,0,0.8,0.1,1.3,0.1
	c0.4,0,0.7,0,1-0.1c0.1,0,0.1,0,0.2,0c1.8-0.3,1.6-3-0.3-3c-0.7-0.1-1.6-0.1-2.3,0c-0.1,0-0.2,0-0.3,0c-1.4,0.3-1.4,1.8-0.6,2.5
	C95.4,35.5,95.4,35.5,95.5,35.5z M88.5,35.5C88.5,35.5,88.5,35.6,88.5,35.5c0.3,0.2,0.5,0.3,0.9,0.3c0,0,0,0,0,0
	c0.4,0,0.8,0.1,1.3,0.1c0.4,0,0.7,0,1.1-0.1c0.1,0,0.1,0,0.2,0c1.8-0.3,1.6-3-0.3-3c0,0,0,0,0,0c-0.7-0.1-1.6-0.1-2.3,0
	c-0.1,0-0.2,0-0.3,0c-1.4,0.3-1.4,1.8-0.6,2.5C88.5,35.5,88.5,35.5,88.5,35.5z M84.7,46.9C84.7,46.9,84.7,46.9,84.7,46.9
	c-0.7-0.1-1.6-0.1-2.3,0c-0.1,0-0.2,0-0.3,0c-1.4,0.3-1.4,1.8-0.6,2.5c0,0,0.1,0.1,0.1,0.1c0,0,0,0,0,0c0.2,0.2,0.5,0.3,0.9,0.3
	c0.4,0,0.8,0.1,1.3,0.1c0.4,0,0.7,0,1.1-0.1c0.1,0,0.1,0,0.2,0C86.8,49.5,86.5,46.9,84.7,46.9z M81.6,35.5
	C81.6,35.5,81.6,35.6,81.6,35.5c0.2,0.2,0.5,0.3,0.9,0.3c0.4,0,0.8,0.1,1.3,0.1c0.4,0,0.7,0,1.1-0.1c0.1,0,0.1,0,0.2,0
	c1.8-0.3,1.6-3-0.3-3c0,0,0,0,0,0c-0.7-0.1-1.6-0.1-2.3,0c-0.1,0-0.2,0-0.3,0c-1.4,0.3-1.4,1.8-0.6,2.5
	C81.5,35.5,81.5,35.5,81.6,35.5z M77.7,46.9C77.7,46.9,77.7,46.9,77.7,46.9c-0.7-0.1-1.6-0.1-2.3,0c-0.1,0-0.2,0-0.3,0
	c-1.4,0.3-1.4,1.8-0.6,2.5c0,0,0.1,0.1,0.1,0.1c0,0,0,0,0,0c0.2,0.2,0.5,0.3,0.9,0.3c0.4,0,0.8,0.1,1.3,0.1c0.4,0,0.7,0,1.1-0.1
	c0.1,0,0.1,0,0.2,0C79.8,49.5,79.6,46.9,77.7,46.9z M91.7,46.9C91.7,46.9,91.7,46.9,91.7,46.9c-0.7-0.1-1.6-0.1-2.3,0
	c-0.1,0-0.2,0-0.3,0c-1.4,0.3-1.4,1.8-0.6,2.5c0,0,0.1,0.1,0.1,0.1c0,0,0,0,0,0c0.2,0.2,0.5,0.3,0.9,0.3c0,0,0,0,0,0
	c0.4,0,0.8,0.1,1.3,0.1c0.4,0,0.7,0,1.1-0.1c0.1,0,0.1,0,0.2,0C93.8,49.5,93.5,46.9,91.7,46.9z M77.7,39.9
	C77.7,39.9,77.7,39.9,77.7,39.9c-0.7-0.1-1.6-0.1-2.3,0c-0.1,0-0.2,0-0.3,0c-1.4,0.3-1.4,1.8-0.6,2.5c0,0,0.1,0.1,0.1,0.1
	c0,0,0,0,0,0c0.2,0.2,0.5,0.3,0.9,0.3c0.4,0,0.8,0.1,1.3,0.1c0.4,0,0.7,0,1.1-0.1c0.1,0,0.1,0,0.2,0C79.8,42.5,79.6,39.9,77.7,39.9z
	 M105.6,39.9C105.6,39.9,105.6,39.9,105.6,39.9c-0.7-0.1-1.6-0.1-2.3,0c-0.1,0-0.2,0-0.3,0c-1.4,0.3-1.4,1.8-0.6,2.5c0,0,0,0,0,0
	c0,0,0,0,0,0c0,0,0,0,0,0c0.1,0.1,0.1,0.1,0.2,0.2c0.2,0.2,0.5,0.3,0.8,0.3c0.4,0,0.8,0.1,1.3,0.1c0.4,0,0.7,0,1.1-0.1
	c0.1,0,0.1,0,0.2,0C107.7,42.5,107.4,39.9,105.6,39.9z M102.3,42.4C102.3,42.4,102.3,42.4,102.3,42.4
	C102.3,42.4,102.3,42.4,102.3,42.4C102.3,42.4,102.3,42.4,102.3,42.4z M81.5,35.4c0,0,0.1,0.1,0.1,0.1c0,0,0,0,0,0
	c0.2,0.2,0.5,0.3,0.9,0.3c0.4,0,0.8,0.1,1.3,0.1c0.4,0,0.7,0,1.1-0.1c0.1,0,0.1,0,0.2,0c1.8-0.3,1.6-3-0.3-3c0,0,0,0,0,0
	c-0.7-0.1-1.6-0.1-2.3,0c-0.1,0-0.2,0-0.3,0C80.7,33.3,80.7,34.7,81.5,35.4z M77.7,46.9C77.7,46.9,77.7,46.9,77.7,46.9
	c-0.7-0.1-1.6-0.1-2.3,0c-0.1,0-0.2,0-0.3,0c-1.4,0.3-1.4,1.8-0.6,2.5c0,0,0.1,0.1,0.1,0.1c0,0,0,0,0,0c0.2,0.2,0.5,0.3,0.9,0.3
	c0.4,0,0.8,0.1,1.3,0.1c0.4,0,0.7,0,1.1-0.1c0.1,0,0.1,0,0.2,0C79.8,49.5,79.6,46.9,77.7,46.9z M77.7,39.9
	C77.7,39.9,77.7,39.9,77.7,39.9c-0.7-0.1-1.6-0.1-2.3,0c-0.1,0-0.2,0-0.3,0c-1.4,0.3-1.4,1.8-0.6,2.5c0,0,0.1,0.1,0.1,0.1
	c0,0,0,0,0,0c0.2,0.2,0.5,0.3,0.9,0.3c0.4,0,0.8,0.1,1.3,0.1c0.4,0,0.7,0,1.1-0.1c0.1,0,0.1,0,0.2,0C79.8,42.5,79.6,39.9,77.7,39.9z
	 M84.7,46.9C84.7,46.9,84.7,46.9,84.7,46.9c-0.7-0.1-1.6-0.1-2.3,0c-0.1,0-0.2,0-0.3,0c-1.4,0.3-1.4,1.8-0.6,2.5
	c0,0,0.1,0.1,0.1,0.1c0,0,0,0,0,0c0.2,0.2,0.5,0.3,0.9,0.3c0.4,0,0.8,0.1,1.3,0.1c0.4,0,0.7,0,1.1-0.1c0.1,0,0.1,0,0.2,0
	C86.8,49.5,86.5,46.9,84.7,46.9z M102.3,35.4c0.1,0.1,0.1,0.1,0.2,0.2c0.2,0.2,0.5,0.3,0.8,0.3c0.4,0,0.8,0.1,1.3,0.1
	c0.4,0,0.7,0,1.1-0.1c0.1,0,0.1,0,0.2,0c1.8-0.3,1.6-3-0.3-3c0,0,0,0,0,0c-0.7-0.1-1.6-0.1-2.3,0c-0.1,0-0.2,0-0.3,0
	C101.6,33.3,101.5,34.7,102.3,35.4z M95.4,35.4c0,0,0.1,0.1,0.1,0.1c0,0,0,0,0,0c0.2,0.2,0.5,0.3,0.9,0.3c0.4,0,0.8,0.1,1.3,0.1
	c0.4,0,0.7,0,1-0.1c0.1,0,0.1,0,0.2,0c1.8-0.3,1.6-3-0.3-3c-0.7-0.1-1.6-0.1-2.3,0c-0.1,0-0.2,0-0.3,0
	C94.6,33.3,94.6,34.7,95.4,35.4z M88.4,35.4c0,0,0.1,0.1,0.1,0.1c0,0,0,0,0,0c0.2,0.2,0.5,0.3,0.9,0.3c0,0,0,0,0,0
	c0.4,0,0.8,0.1,1.3,0.1c0.4,0,0.7,0,1.1-0.1c0.1,0,0.1,0,0.2,0c1.8-0.3,1.6-3-0.3-3c0,0,0,0,0,0c-0.7-0.1-1.6-0.1-2.3,0
	c-0.1,0-0.2,0-0.3,0C87.7,33.3,87.6,34.7,88.4,35.4z M91.7,46.9C91.7,46.9,91.7,46.9,91.7,46.9c-0.7-0.1-1.6-0.1-2.3,0
	c-0.1,0-0.2,0-0.3,0c-1.4,0.3-1.4,1.8-0.6,2.5c0,0,0.1,0.1,0.1,0.1c0,0,0,0,0,0c0.2,0.2,0.5,0.3,0.9,0.3c0,0,0,0,0,0
	c0.4,0,0.8,0.1,1.3,0.1c0.4,0,0.7,0,1.1-0.1c0.1,0,0.1,0,0.2,0C93.8,49.5,93.5,46.9,91.7,46.9z M91.7,39.9
	C91.7,39.9,91.7,39.9,91.7,39.9c-0.7-0.1-1.6-0.1-2.3,0c-0.1,0-0.2,0-0.3,0c-1.4,0.3-1.4,1.8-0.6,2.5c0,0,0.1,0.1,0.1,0.1
	c0,0,0,0,0,0c0.2,0.2,0.5,0.3,0.9,0.3c0,0,0,0,0,0c0.4,0,0.8,0.1,1.3,0.1c0.4,0,0.7,0,1.1-0.1c0.1,0,0.1,0,0.2,0
	C93.8,42.5,93.5,39.9,91.7,39.9z M98.6,46.9c-0.7-0.1-1.6-0.1-2.3,0c-0.1,0-0.2,0-0.3,0c-1.4,0.3-1.4,1.8-0.6,2.5
	c0,0,0.1,0.1,0.1,0.1c0,0,0,0,0,0c0.2,0.2,0.5,0.3,0.9,0.3c0.4,0,0.8,0.1,1.3,0.1c0.4,0,0.7,0,1.1-0.1c0.1,0,0.1,0,0.2,0
	C100.7,49.5,100.5,46.9,98.6,46.9z M98.6,39.9c-0.7-0.1-1.6-0.1-2.3,0c-0.1,0-0.2,0-0.3,0c-1.4,0.3-1.4,1.8-0.6,2.5
	c0,0,0.1,0.1,0.1,0.1c0,0,0,0,0,0c0.2,0.2,0.5,0.3,0.9,0.3c0.4,0,0.8,0.1,1.3,0.1c0.4,0,0.7,0,1.1-0.1c0.1,0,0.1,0,0.2,0
	C100.7,42.5,100.5,39.9,98.6,39.9z M105.6,46.9C105.6,46.9,105.6,46.9,105.6,46.9c-0.7-0.1-1.6-0.1-2.3,0c-0.1,0-0.2,0-0.3,0
	c-1.4,0.3-1.4,1.8-0.6,2.5c0.1,0.1,0.1,0.1,0.2,0.2c0.2,0.2,0.5,0.3,0.8,0.3c0.4,0,0.8,0.1,1.3,0.1c0.4,0,0.7,0,1.1-0.1
	c0.1,0,0.1,0,0.2,0C107.7,49.5,107.4,46.9,105.6,46.9z M105.6,39.9C105.6,39.9,105.6,39.9,105.6,39.9c-0.7-0.1-1.6-0.1-2.3,0
	c-0.1,0-0.2,0-0.3,0c-1.4,0.3-1.4,1.8-0.6,2.5c0.1,0.1,0.1,0.1,0.2,0.2c0.2,0.2,0.5,0.3,0.8,0.3c0.4,0,0.8,0.1,1.3,0.1
	c0.4,0,0.7,0,1.1-0.1c0.1,0,0.1,0,0.2,0C107.7,42.5,107.4,39.9,105.6,39.9z M115.3,19.7c0,7.1,0,14.3,0,21.4c0,3.1,0,6.1,0,9.2
	c0,3.2-0.5,6.4-3,8.6c-2.1,1.9-4.6,1.8-7.2,1.8c-3.3,0-6.7,0-10,0c-6.9,0-13.8,0-20.7,0c-0.8,0-1.6,0-2.3-0.1
	c-2.8-0.5-5.2-2.6-6.4-5.2c-1-2.2-0.8-4.7-0.8-7.1c0-7.6,0-15.1,0-22.7c0-2.3,0-4.6,0-7c0-4.8,3.9-7.4,8.4-7.5c1.6,0,3.2,0,4.8,0
	c0.8,0,0.8,0.1,0.8-0.6c0-0.8-0.2-2,0.4-2.6c1-1,2.1,0.2,2.1,1.2c0,0.3-0.2,1.8,0,2c0.1,0.1,0.6,0,0.7,0c0.6,0,1.2,0,1.8,0
	c3.9,0,7.7,0,11.6,0c0.7,0,1.4,0,2.2,0c0.2,0,0.9,0.1,1.1,0c0.2-0.2,0.1-1.1,0.1-1.4c0-0.9,0-2.2,1.2-2.2c1.2,0,1.2,1.2,1.2,2.1
	c0,0.4-0.2,1.3,0.2,1.5c0.5,0.2,1.7,0,2.3,0c1,0,1.9,0,2.9,0c1.9,0,3.8,0,5.5,1C114.9,13.7,115.3,16.8,115.3,19.7z M112.8,27.4
	c0-0.4,0.1-0.3-0.1-0.4c-0.3-0.1-1,0-1.3,0c-5,0-10,0-15,0c-6.4,0-12.9,0-19.3,0c-3.2,0-6.5,0-9.7,0c0,0.4,0,0.8,0,1.2
	c0,5.8,0,11.7,0,17.5c0,1.9,0,3.9,0,5.8c0,3.2,2.9,6.5,6.2,6.6c4.3,0.1,8.7,0,13.1,0c6,0,12.1,0,18.1,0c1.2,0,2.6,0.1,3.8-0.1
	c3.3-0.5,4.4-4.2,4.4-7.1c0-5.7,0-11.4,0-17C112.8,31.8,112.9,29.6,112.8,27.4z M112.7,17.6c-0.4-3-3-4-5.7-4c-1.9,0-3.9,0-5.8,0
	c0,1,0.2,2.6-1,2.8c-0.9,0.2-1.4-0.5-1.5-1.3c0-0.3,0.2-1.3,0-1.5c-0.1-0.2-0.6-0.1-0.9-0.1c-2,0-4.1,0-6.1,0c-2.4,0-4.8,0-7.3,0
	c-0.6,0-3-0.3-3.3,0.1c-0.2,0.4,0.1,1.2-0.1,1.7c-0.2,0.7-0.9,1.2-1.6,1c-0.7-0.3-0.8-1-0.8-1.6c0-0.2,0.1-1,0-1.2
	c-0.1-0.1-0.8,0-0.9,0c-0.6,0-1.2,0-1.7,0c-0.9,0-1.8,0-2.7,0c-3,0.1-6,1.7-6.1,4.9c0,1,0,2.1,0,3.1c0,0.6,0,1.2,0,1.7
	c0,0.1-0.1,0.7,0,0.8c0.2,0.2,1.4,0,1.6,0c1.5,0,2.9,0,4.4,0c4.6,0,9.1,0,13.7,0c8.1,0,16.2,0,24.3,0c0.2,0,0.5,0,0.7,0
	c0.7,0,0.9,0.2,0.9-0.5C112.8,21.7,113,19.6,112.7,17.6z M91.7,39.9C91.7,39.9,91.7,39.9,91.7,39.9c-0.7-0.1-1.6-0.1-2.3,0
	c-0.1,0-0.2,0-0.3,0c-1.4,0.3-1.4,1.8-0.6,2.5c0,0,0.1,0.1,0.1,0.1c0,0,0,0,0,0c0.2,0.2,0.5,0.3,0.9,0.3c0,0,0,0,0,0
	c0.4,0,0.8,0.1,1.3,0.1c0.4,0,0.7,0,1.1-0.1c0.1,0,0.1,0,0.2,0C93.8,42.5,93.5,39.9,91.7,39.9z M98.6,46.9c-0.7-0.1-1.6-0.1-2.3,0
	c-0.1,0-0.2,0-0.3,0c-1.4,0.3-1.4,1.8-0.6,2.5c0,0,0.1,0.1,0.1,0.1c0,0,0,0,0,0c0.2,0.2,0.5,0.3,0.9,0.3c0.4,0,0.8,0.1,1.3,0.1
	c0.4,0,0.7,0,1.1-0.1c0.1,0,0.1,0,0.2,0C100.7,49.5,100.5,46.9,98.6,46.9z M105.6,46.9C105.6,46.9,105.6,46.9,105.6,46.9
	c-0.7-0.1-1.6-0.1-2.3,0c-0.1,0-0.2,0-0.3,0c-1.4,0.3-1.4,1.8-0.6,2.5c0,0,0,0,0,0c0,0,0,0,0,0c0,0,0,0,0,0c0.1,0.1,0.1,0.1,0.2,0.2
	c0.2,0.2,0.5,0.3,0.8,0.3c0.4,0,0.8,0.1,1.3,0.1c0.4,0,0.7,0,1.1-0.1c0.1,0,0.1,0,0.2,0C107.7,49.5,107.4,46.9,105.6,46.9z
	 M98.6,39.9c-0.7-0.1-1.6-0.1-2.3,0c-0.1,0-0.2,0-0.3,0c-1.4,0.3-1.4,1.8-0.6,2.5c0,0,0.1,0.1,0.1,0.1c0,0,0,0,0,0
	c0.2,0.2,0.5,0.3,0.9,0.3c0.4,0,0.8,0.1,1.3,0.1c0.4,0,0.7,0,1.1-0.1c0.1,0,0.1,0,0.2,0C100.7,42.5,100.5,39.9,98.6,39.9z
	 M102.3,49.4C102.3,49.4,102.3,49.4,102.3,49.4C102.3,49.4,102.3,49.4,102.3,49.4C102.3,49.4,102.3,49.4,102.3,49.4z"/>
<path class="st0" d="M146.3,43.2c-0.1,0-0.1,0-0.2,0c-0.3,0.1-0.7,0.1-1.1,0.1c-0.4,0-0.9,0-1.3-0.1c-0.4,0-0.7-0.1-0.9-0.3
	c0,0,0,0,0,0c0,0-0.1-0.1-0.1-0.1c-0.8-0.7-0.8-2.2,0.6-2.5c0.1,0,0.2,0,0.3,0c0.7-0.1,1.7-0.1,2.3,0c0,0,0,0,0,0
	C147.8,40.2,148.1,42.9,146.3,43.2z M163.6,35.7C163.6,35.7,163.6,35.7,163.6,35.7C163.6,35.8,163.6,35.8,163.6,35.7
	C163.6,35.7,163.6,35.7,163.6,35.7z M163.6,35.7C163.6,35.7,163.6,35.7,163.6,35.7C163.6,35.8,163.6,35.8,163.6,35.7
	c0.1,0.1,0.1,0.2,0.2,0.2c0.2,0.2,0.5,0.3,0.8,0.3c0.4,0,0.8,0.1,1.3,0.1c0.4,0,0.7,0,1.1-0.1c0.1,0,0.1,0,0.2,0
	c1.8-0.3,1.6-3-0.3-3c0,0,0,0,0,0c-0.7-0.1-1.6-0.1-2.3,0c-0.1,0-0.2,0-0.3,0C162.9,33.6,162.8,35,163.6,35.7
	C163.6,35.7,163.6,35.7,163.6,35.7z M156.8,35.9C156.8,35.9,156.8,35.9,156.8,35.9c0.2,0.2,0.5,0.3,0.9,0.3c0.4,0,0.8,0.1,1.3,0.1
	c0.4,0,0.7,0,1-0.1c0.1,0,0.1,0,0.2,0c1.8-0.3,1.6-3-0.3-3c-0.7-0.1-1.6-0.1-2.3,0c-0.1,0-0.2,0-0.3,0c-1.4,0.3-1.4,1.8-0.6,2.5
	C156.7,35.8,156.7,35.8,156.8,35.9z M149.8,35.9C149.8,35.9,149.8,35.9,149.8,35.9c0.3,0.2,0.5,0.3,0.9,0.3c0,0,0,0,0,0
	c0.4,0,0.8,0.1,1.3,0.1c0.4,0,0.7,0,1.1-0.1c0.1,0,0.1,0,0.2,0c1.8-0.3,1.6-3-0.3-3c0,0,0,0,0,0c-0.7-0.1-1.6-0.1-2.3,0
	c-0.1,0-0.2,0-0.3,0c-1.4,0.3-1.4,1.8-0.6,2.5C149.7,35.8,149.8,35.8,149.8,35.9z M146,47.2C146,47.2,146,47.2,146,47.2
	c-0.7-0.1-1.6-0.1-2.3,0c-0.1,0-0.2,0-0.3,0c-1.4,0.3-1.4,1.8-0.6,2.5c0,0,0.1,0.1,0.1,0.1c0,0,0,0,0,0c0.2,0.2,0.5,0.3,0.9,0.3
	c0.4,0,0.8,0.1,1.3,0.1c0.4,0,0.7,0,1.1-0.1c0.1,0,0.1,0,0.2,0C148.1,49.9,147.8,47.2,146,47.2z M142.9,35.9
	C142.9,35.9,142.9,35.9,142.9,35.9c0.2,0.2,0.5,0.3,0.9,0.3c0.4,0,0.8,0.1,1.3,0.1c0.4,0,0.7,0,1.1-0.1c0.1,0,0.1,0,0.2,0
	c1.8-0.3,1.6-3-0.3-3c0,0,0,0,0,0c-0.7-0.1-1.6-0.1-2.3,0c-0.1,0-0.2,0-0.3,0c-1.4,0.3-1.4,1.8-0.6,2.5
	C142.8,35.8,142.8,35.8,142.9,35.9z M139,47.2C139,47.2,139,47.2,139,47.2c-0.7-0.1-1.6-0.1-2.3,0c-0.1,0-0.2,0-0.3,0
	c-1.4,0.3-1.4,1.8-0.6,2.5c0,0,0.1,0.1,0.1,0.1c0,0,0,0,0,0c0.2,0.2,0.5,0.3,0.9,0.3c0.4,0,0.8,0.1,1.3,0.1c0.4,0,0.7,0,1.1-0.1
	c0.1,0,0.1,0,0.2,0C141.1,49.9,140.9,47.2,139,47.2z M152.9,47.2C152.9,47.2,152.9,47.2,152.9,47.2c-0.7-0.1-1.6-0.1-2.3,0
	c-0.1,0-0.2,0-0.3,0c-1.4,0.3-1.4,1.8-0.6,2.5c0,0,0.1,0.1,0.1,0.1c0,0,0,0,0,0c0.2,0.2,0.5,0.3,0.9,0.3c0,0,0,0,0,0
	c0.4,0,0.8,0.1,1.3,0.1c0.4,0,0.7,0,1.1-0.1c0.1,0,0.1,0,0.2,0C155,49.9,154.8,47.2,152.9,47.2z M139,40.2
	C139,40.2,139,40.2,139,40.2c-0.7-0.1-1.6-0.1-2.3,0c-0.1,0-0.2,0-0.3,0c-1.4,0.3-1.4,1.8-0.6,2.5c0,0,0.1,0.1,0.1,0.1c0,0,0,0,0,0
	c0.2,0.2,0.5,0.3,0.9,0.3c0.4,0,0.8,0.1,1.3,0.1c0.4,0,0.7,0,1.1-0.1c0.1,0,0.1,0,0.2,0C141.1,42.9,140.9,40.2,139,40.2z
	 M166.9,40.2C166.9,40.2,166.9,40.2,166.9,40.2c-0.7-0.1-1.6-0.1-2.3,0c-0.1,0-0.2,0-0.3,0c-1.4,0.3-1.4,1.8-0.6,2.5c0,0,0,0,0,0
	c0,0,0,0,0,0c0,0,0,0,0,0c0.1,0.1,0.1,0.1,0.2,0.2c0.2,0.2,0.5,0.3,0.8,0.3c0.4,0,0.8,0.1,1.3,0.1c0.4,0,0.7,0,1.1-0.1
	c0.1,0,0.1,0,0.2,0C169,42.9,168.7,40.2,166.9,40.2z M163.6,42.7C163.6,42.7,163.6,42.7,163.6,42.7
	C163.6,42.8,163.6,42.8,163.6,42.7C163.6,42.7,163.6,42.7,163.6,42.7z M142.7,35.8c0,0,0.1,0.1,0.1,0.1c0,0,0,0,0,0
	c0.2,0.2,0.5,0.3,0.9,0.3c0.4,0,0.8,0.1,1.3,0.1c0.4,0,0.7,0,1.1-0.1c0.1,0,0.1,0,0.2,0c1.8-0.3,1.6-3-0.3-3c0,0,0,0,0,0
	c-0.7-0.1-1.6-0.1-2.3,0c-0.1,0-0.2,0-0.3,0C142,33.6,142,35,142.7,35.8z M139,47.2C139,47.2,139,47.2,139,47.2
	c-0.7-0.1-1.6-0.1-2.3,0c-0.1,0-0.2,0-0.3,0c-1.4,0.3-1.4,1.8-0.6,2.5c0,0,0.1,0.1,0.1,0.1c0,0,0,0,0,0c0.2,0.2,0.5,0.3,0.9,0.3
	c0.4,0,0.8,0.1,1.3,0.1c0.4,0,0.7,0,1.1-0.1c0.1,0,0.1,0,0.2,0C141.1,49.9,140.9,47.2,139,47.2z M139,40.2
	C139,40.2,139,40.2,139,40.2c-0.7-0.1-1.6-0.1-2.3,0c-0.1,0-0.2,0-0.3,0c-1.4,0.3-1.4,1.8-0.6,2.5c0,0,0.1,0.1,0.1,0.1c0,0,0,0,0,0
	c0.2,0.2,0.5,0.3,0.9,0.3c0.4,0,0.8,0.1,1.3,0.1c0.4,0,0.7,0,1.1-0.1c0.1,0,0.1,0,0.2,0C141.1,42.9,140.9,40.2,139,40.2z M146,47.2
	C146,47.2,146,47.2,146,47.2c-0.7-0.1-1.6-0.1-2.3,0c-0.1,0-0.2,0-0.3,0c-1.4,0.3-1.4,1.8-0.6,2.5c0,0,0.1,0.1,0.1,0.1c0,0,0,0,0,0
	c0.2,0.2,0.5,0.3,0.9,0.3c0.4,0,0.8,0.1,1.3,0.1c0.4,0,0.7,0,1.1-0.1c0.1,0,0.1,0,0.2,0C148.1,49.9,147.8,47.2,146,47.2z
	 M163.6,35.8c0.1,0.1,0.1,0.1,0.2,0.2c0.2,0.2,0.5,0.3,0.8,0.3c0.4,0,0.8,0.1,1.3,0.1c0.4,0,0.7,0,1.1-0.1c0.1,0,0.1,0,0.2,0
	c1.8-0.3,1.6-3-0.3-3c0,0,0,0,0,0c-0.7-0.1-1.6-0.1-2.3,0c-0.1,0-0.2,0-0.3,0C162.9,33.6,162.8,35,163.6,35.8z M156.7,35.8
	c0,0,0.1,0.1,0.1,0.1c0,0,0,0,0,0c0.2,0.2,0.5,0.3,0.9,0.3c0.4,0,0.8,0.1,1.3,0.1c0.4,0,0.7,0,1-0.1c0.1,0,0.1,0,0.2,0
	c1.8-0.3,1.6-3-0.3-3c-0.7-0.1-1.6-0.1-2.3,0c-0.1,0-0.2,0-0.3,0C155.9,33.6,155.9,35,156.7,35.8z M149.7,35.8c0,0,0.1,0.1,0.1,0.1
	c0,0,0,0,0,0c0.2,0.2,0.5,0.3,0.9,0.3c0,0,0,0,0,0c0.4,0,0.8,0.1,1.3,0.1c0.4,0,0.7,0,1.1-0.1c0.1,0,0.1,0,0.2,0
	c1.8-0.3,1.6-3-0.3-3c0,0,0,0,0,0c-0.7-0.1-1.6-0.1-2.3,0c-0.1,0-0.2,0-0.3,0C148.9,33.6,148.9,35,149.7,35.8z M152.9,47.2
	C152.9,47.2,152.9,47.2,152.9,47.2c-0.7-0.1-1.6-0.1-2.3,0c-0.1,0-0.2,0-0.3,0c-1.4,0.3-1.4,1.8-0.6,2.5c0,0,0.1,0.1,0.1,0.1
	c0,0,0,0,0,0c0.2,0.2,0.5,0.3,0.9,0.3c0,0,0,0,0,0c0.4,0,0.8,0.1,1.3,0.1c0.4,0,0.7,0,1.1-0.1c0.1,0,0.1,0,0.2,0
	C155,49.9,154.8,47.2,152.9,47.2z M152.9,40.2C152.9,40.2,152.9,40.2,152.9,40.2c-0.7-0.1-1.6-0.1-2.3,0c-0.1,0-0.2,0-0.3,0
	c-1.4,0.3-1.4,1.8-0.6,2.5c0,0,0.1,0.1,0.1,0.1c0,0,0,0,0,0c0.2,0.2,0.5,0.3,0.9,0.3c0,0,0,0,0,0c0.4,0,0.8,0.1,1.3,0.1
	c0.4,0,0.7,0,1.1-0.1c0.1,0,0.1,0,0.2,0C155,42.9,154.8,40.2,152.9,40.2z M159.9,47.2c-0.7-0.1-1.6-0.1-2.3,0c-0.1,0-0.2,0-0.3,0
	c-1.4,0.3-1.4,1.8-0.6,2.5c0,0,0.1,0.1,0.1,0.1c0,0,0,0,0,0c0.2,0.2,0.5,0.3,0.9,0.3c0.4,0,0.8,0.1,1.3,0.1c0.4,0,0.7,0,1.1-0.1
	c0.1,0,0.1,0,0.2,0C162,49.9,161.8,47.2,159.9,47.2z M159.9,40.2c-0.7-0.1-1.6-0.1-2.3,0c-0.1,0-0.2,0-0.3,0
	c-1.4,0.3-1.4,1.8-0.6,2.5c0,0,0.1,0.1,0.1,0.1c0,0,0,0,0,0c0.2,0.2,0.5,0.3,0.9,0.3c0.4,0,0.8,0.1,1.3,0.1c0.4,0,0.7,0,1.1-0.1
	c0.1,0,0.1,0,0.2,0C162,42.9,161.8,40.2,159.9,40.2z M166.9,47.2C166.9,47.2,166.9,47.2,166.9,47.2c-0.7-0.1-1.6-0.1-2.3,0
	c-0.1,0-0.2,0-0.3,0c-1.4,0.3-1.4,1.8-0.6,2.5c0.1,0.1,0.1,0.1,0.2,0.2c0.2,0.2,0.5,0.3,0.8,0.3c0.4,0,0.8,0.1,1.3,0.1
	c0.4,0,0.7,0,1.1-0.1c0.1,0,0.1,0,0.2,0C169,49.9,168.7,47.2,166.9,47.2z M166.9,40.2C166.9,40.2,166.9,40.2,166.9,40.2
	c-0.7-0.1-1.6-0.1-2.3,0c-0.1,0-0.2,0-0.3,0c-1.4,0.3-1.4,1.8-0.6,2.5c0.1,0.1,0.1,0.1,0.2,0.2c0.2,0.2,0.5,0.3,0.8,0.3
	c0.4,0,0.8,0.1,1.3,0.1c0.4,0,0.7,0,1.1-0.1c0.1,0,0.1,0,0.2,0C169,42.9,168.7,40.2,166.9,40.2z M176.5,20c0,7.1,0,14.3,0,21.4
	c0,3.1,0,6.1,0,9.2c0,3.2-0.5,6.4-3,8.6c-2.1,1.9-4.6,1.8-7.2,1.8c-3.3,0-6.7,0-10,0c-6.9,0-13.8,0-20.7,0c-0.8,0-1.6,0-2.3-0.1
	c-2.8-0.5-5.2-2.6-6.4-5.2c-1-2.2-0.8-4.7-0.8-7.1c0-7.6,0-15.1,0-22.7c0-2.3,0-4.6,0-7c0-4.8,3.9-7.4,8.4-7.5c1.6,0,3.2,0,4.8,0
	c0.8,0,0.8,0.1,0.8-0.6c0-0.8-0.2-2,0.4-2.6c1-1,2.1,0.2,2.1,1.2c0,0.3-0.2,1.8,0,2c0.1,0.1,0.6,0,0.7,0c0.6,0,1.2,0,1.8,0
	c3.9,0,7.7,0,11.6,0c0.7,0,1.4,0,2.2,0c0.2,0,0.9,0.1,1.1,0c0.2-0.2,0.1-1.1,0.1-1.4c0-0.9,0-2.2,1.2-2.2c1.2,0,1.2,1.2,1.2,2.1
	c0,0.4-0.2,1.3,0.2,1.5c0.5,0.2,1.7,0,2.3,0c1,0,1.9,0,2.9,0c1.9,0,3.8,0,5.5,1C176.2,14.1,176.5,17.1,176.5,20z M174,27.7
	c0-0.4,0.1-0.3-0.1-0.4c-0.3-0.1-1,0-1.3,0c-5,0-10,0-15,0c-6.4,0-12.9,0-19.3,0c-3.2,0-6.5,0-9.7,0c0,0.4,0,0.8,0,1.2
	c0,5.8,0,11.7,0,17.5c0,1.9,0,3.9,0,5.8c0,3.2,2.9,6.5,6.2,6.6c4.3,0.1,8.7,0,13.1,0c6,0,12.1,0,18.1,0c1.2,0,2.6,0.1,3.8-0.1
	c3.3-0.5,4.4-4.2,4.4-7.1c0-5.7,0-11.4,0-17C174,32.1,174.2,29.9,174,27.7z M174,17.9c-0.4-3-3-4-5.7-4c-1.9,0-3.9,0-5.8,0
	c0,1,0.2,2.6-1,2.8c-0.9,0.2-1.4-0.5-1.5-1.3c0-0.3,0.2-1.3,0-1.5c-0.1-0.2-0.6-0.1-0.9-0.1c-2,0-4.1,0-6.1,0c-2.4,0-4.8,0-7.3,0
	c-0.6,0-3-0.3-3.3,0.1c-0.2,0.4,0.1,1.2-0.1,1.7c-0.2,0.7-0.9,1.2-1.6,1c-0.7-0.3-0.8-1-0.8-1.6c0-0.2,0.1-1,0-1.2
	c-0.1-0.1-0.8,0-0.9,0c-0.6,0-1.2,0-1.7,0c-0.9,0-1.8,0-2.7,0c-3,0.1-6,1.7-6.1,4.9c0,1,0,2.1,0,3.1c0,0.6,0,1.2,0,1.7
	c0,0.1-0.1,0.7,0,0.8c0.2,0.2,1.4,0,1.6,0c1.5,0,2.9,0,4.4,0c4.6,0,9.1,0,13.7,0c8.1,0,16.2,0,24.3,0c0.2,0,0.5,0,0.7,0
	c0.7,0,0.9,0.2,0.9-0.5C174,22,174.3,19.9,174,17.9z M152.9,40.2C152.9,40.2,152.9,40.2,152.9,40.2c-0.7-0.1-1.6-0.1-2.3,0
	c-0.1,0-0.2,0-0.3,0c-1.4,0.3-1.4,1.8-0.6,2.5c0,0,0.1,0.1,0.1,0.1c0,0,0,0,0,0c0.2,0.2,0.5,0.3,0.9,0.3c0,0,0,0,0,0
	c0.4,0,0.8,0.1,1.3,0.1c0.4,0,0.7,0,1.1-0.1c0.1,0,0.1,0,0.2,0C155,42.9,154.8,40.2,152.9,40.2z M159.9,47.2c-0.7-0.1-1.6-0.1-2.3,0
	c-0.1,0-0.2,0-0.3,0c-1.4,0.3-1.4,1.8-0.6,2.5c0,0,0.1,0.1,0.1,0.1c0,0,0,0,0,0c0.2,0.2,0.5,0.3,0.9,0.3c0.4,0,0.8,0.1,1.3,0.1
	c0.4,0,0.7,0,1.1-0.1c0.1,0,0.1,0,0.2,0C162,49.9,161.8,47.2,159.9,47.2z M166.9,47.2C166.9,47.2,166.9,47.2,166.9,47.2
	c-0.7-0.1-1.6-0.1-2.3,0c-0.1,0-0.2,0-0.3,0c-1.4,0.3-1.4,1.8-0.6,2.5c0,0,0,0,0,0c0,0,0,0,0,0c0,0,0,0,0,0c0.1,0.1,0.1,0.1,0.2,0.2
	c0.2,0.2,0.5,0.3,0.8,0.3c0.4,0,0.8,0.1,1.3,0.1c0.4,0,0.7,0,1.1-0.1c0.1,0,0.1,0,0.2,0C169,49.9,168.7,47.2,166.9,47.2z
	 M159.9,40.2c-0.7-0.1-1.6-0.1-2.3,0c-0.1,0-0.2,0-0.3,0c-1.4,0.3-1.4,1.8-0.6,2.5c0,0,0.1,0.1,0.1,0.1c0,0,0,0,0,0
	c0.2,0.2,0.5,0.3,0.9,0.3c0.4,0,0.8,0.1,1.3,0.1c0.4,0,0.7,0,1.1-0.1c0.1,0,0.1,0,0.2,0C162,42.9,161.8,40.2,159.9,40.2z
	 M163.6,49.7C163.6,49.7,163.6,49.7,163.6,49.7C163.6,49.8,163.6,49.8,163.6,49.7C163.6,49.7,163.6,49.7,163.6,49.7z"/>
</svg>
