<?xml version="1.0" encoding="iso-8859-1"?>
<!-- Generator: Adobe Illustrator 18.1.1, SVG Export Plug-In . SVG Version: 6.00 Build 0)  -->
<svg version="1.0" id="Calque_1" xmlns="http://www.w3.org/2000/svg" xmlns:xlink="http://www.w3.org/1999/xlink" x="0px" y="0px"
	 viewBox="0 0 180 70" style="enable-background:new 0 0 180 70;" xml:space="preserve">
<path style="fill:#231F20;" d="M90.277,38.357c8.444,0,15.314-6.87,15.314-15.314S98.721,7.729,90.277,7.729
	s-15.314,6.87-15.314,15.315C74.963,31.488,81.833,38.357,90.277,38.357z M81.28,14.047c2.407-2.407,5.602-3.732,8.997-3.732
	c7.019,0,12.728,5.71,12.728,12.728c0,7.018-5.71,12.728-12.728,12.728c-7.018,0-12.728-5.71-12.728-12.728
	C77.548,19.648,78.873,16.453,81.28,14.047z"/>
<path style="fill:#231F20;" d="M98.503,42.507H81.311c-10.021,0-18.174,8.153-18.174,18.174c0,0.713,0.58,1.292,1.292,1.292
	c0.713,0,1.292-0.58,1.292-1.292c0-8.595,6.993-15.588,15.588-15.588h17.192c8.595,0,15.588,6.993,15.588,15.588
	c0,0.713,0.58,1.292,1.292,1.292c0.713,0,1.292-0.58,1.292-1.292c0.001-4.846-1.891-9.408-5.327-12.844
	C107.911,44.4,103.35,42.507,98.503,42.507z"/>
<path style="fill:#231F20;" d="M90.304,31.528c0.15,0,0.299-0.007,0.451-0.02c1.692-0.147,3.206-1.111,4.055-2.581
	c0.359-0.621,0.147-1.414-0.473-1.77c-0.618-0.357-1.414-0.147-1.77,0.473c-0.425,0.737-1.186,1.22-2.034,1.295
	c-0.958,0.061-1.894-0.375-2.413-1.2c-0.388-0.608-1.191-0.781-1.79-0.403c-0.606,0.385-0.785,1.186-0.403,1.79
	C86.887,30.629,88.534,31.528,90.304,31.528z"/>
</svg>
