<?xml version="1.0" encoding="utf-8"?>
<!-- Generator: Adobe Illustrator 21.0.0, SVG Export Plug-In . SVG Version: 6.00 Build 0)  -->
<svg version="1.1" id="Calque_1" xmlns="http://www.w3.org/2000/svg" xmlns:xlink="http://www.w3.org/1999/xlink" x="0px" y="0px"
	 viewBox="0 0 109.9 106.5" style="enable-background:new 0 0 109.9 106.5;" xml:space="preserve">
<style type="text/css">
	.st0{fill:#768EC3;}
	.st1{fill:#A8BDDF;}
	.st2{clip-path:url(#SVGID_2_);fill:#E3AC53;}
	.st3{clip-path:url(#SVGID_2_);fill:#F6CB82;}
	.st4{clip-path:url(#SVGID_2_);fill:none;stroke:#F5E8D4;stroke-width:3;stroke-miterlimit:10;}
	.st5{fill:#F3E7D2;}
</style>
<polygon class="st0" points="52.7,85 70.4,106.5 96.1,106.5 52.7,40.5 "/>
<polygon class="st1" points="9.4,106.5 35.1,106.5 52.8,85 52.8,40.5 "/>
<g>
	<defs>
		<rect id="SVGID_1_" width="109.9" height="106.5"/>
	</defs>
	<clipPath id="SVGID_2_">
		<use xlink:href="#SVGID_1_"  style="overflow:visible;"/>
	</clipPath>
	<path class="st2" d="M97.2,44.5C97.2,19.9,77.3,0,52.8,0S8.2,19.9,8.2,44.5S28.2,89,52.8,89S97.2,69.1,97.2,44.5"/>
	<path class="st3" d="M52.8,0C28.2,0,8.2,19.9,8.2,44.5S28.2,89,52.8,89"/>
	<circle class="st4" cx="52.8" cy="44.5" r="35.9"/>
</g>
<polygon class="st5" points="52.8,52.5 64.6,58.8 62.3,45.5 71.9,36.2 58.7,34.3 52.8,22.2 46.8,34.3 33.6,36.2 43.2,45.5 
	40.9,58.8 "/>
</svg>
