<?xml version="1.0" encoding="iso-8859-1"?>
<!-- Generator: Adobe Illustrator 18.1.1, SVG Export Plug-In . SVG Version: 6.00 Build 0)  -->
<svg version="1.0" id="Calque_1" xmlns="http://www.w3.org/2000/svg" xmlns:xlink="http://www.w3.org/1999/xlink" x="0px" y="0px"
	 viewBox="0 0 113 20" style="enable-background:new 0 0 113 20;" xml:space="preserve">
<path style="fill:#FFFFFF;" d="M56.5,20C87.704,20,88.667,0,113,0L56.5,0L0,0C24.333,0,25.296,20,56.5,20z"/>
</svg>
