{
  "dependencies": {
    "widgets.js": {
      "files": [
        "scripts/index.js"
      ]
    },
    "widgets.css": {
      "files": "styles/index.scss"
    },
    "images": {
      "files": ["images/**/*"]
    }
  },
  "paths": {
    "source": "./../../../plugins/dlbi-sodexo-vc-widget/assets/",
    "dist": "./../../../plugins/dlbi-sodexo-vc-widget/dist/"
  }
}