{
    "key": "group_5980482d738fd",
    "title": "Login page",
    "fields": [
        {
            "key": "field_59804832c4395",
            "label": "Login page background",
            "name": "login_page_background",
            "type": "image",
            "instructions": "",
            "required": 0,
            "conditional_logic": 0,
            "wrapper": {
                "width": "",
                "class": "",
                "id": ""
            },
            "return_format": "id",
            "preview_size": "thumbnail",
            "library": "all",
            "min_width": "",
            "min_height": "",
            "min_size": "",
            "max_width": "",
            "max_height": "",
            "max_size": "",
            "mime_types": ""
        },
        {
            "key": "field_597b057c1576f",
            "label": "Blocks post grid",
            "name": "login_page_flexible_blocks",
            "type": "flexible_content",
            "instructions": "",
            "required": 0,
            "conditional_logic": 0,
            "wrapper": {
                "width": "",
                "class": "",
                "id": ""
            },
            "button_label": "Ajouter un élément",
            "min": "",
            "max": "",
            "layouts": [
                {
                    "key": "597b05ae74a35",
                    "name": "block_posts_grid",
                    "label": "Block posts grid",
                    "display": "block",
                    "sub_fields": [
                        {
                            "key": "field_597b2f71bfa1c",
                            "label": "Show post grid",
                            "name": "posts_grid_show_title_page",
                            "type": "true_false",
                            "instructions": "",
                            "required": 0,
                            "conditional_logic": 0,
                            "wrapper": {
                                "width": "",
                                "class": "",
                                "id": ""
                            },
                            "message": "",
                            "default_value": 1,
                            "ui": 1,
                            "ui_on_text": "",
                            "ui_off_text": ""
                        },
                        {
                            "key": "field_597b2f93bfa1d",
                            "label": "Block title",
                            "name": "posts_grid_block_title",
                            "type": "text",
                            "instructions": "",
                            "required": 0,
                            "conditional_logic": [
                                [
                                    {
                                        "field": "field_597b2f71bfa1c",
                                        "operator": "==",
                                        "value": "1"
                                    }
                                ]
                            ],
                            "wrapper": {
                                "width": "",
                                "class": "",
                                "id": ""
                            },
                            "default_value": "",
                            "placeholder": "",
                            "prepend": "",
                            "append": "",
                            "maxlength": ""
                        },
                        {
                            "key": "field_597b2fbdbfa1e",
                            "label": "Posts grid item",
                            "name": "posts_grid",
                            "type": "repeater",
                            "instructions": "",
                            "required": 0,
                            "conditional_logic": 0,
                            "wrapper": {
                                "width": "",
                                "class": "",
                                "id": ""
                            },
                            "collapsed": "",
                            "min": 0,
                            "max": 0,
                            "layout": "row",
                            "button_label": "",
                            "sub_fields": [
                                {
                                    "key": "field_597b2fd3bfa1f",
                                    "label": "Post type",
                                    "name": "posts_grid_type",
                                    "type": "select",
                                    "instructions": "",
                                    "required": 0,
                                    "conditional_logic": 0,
                                    "wrapper": {
                                        "width": "",
                                        "class": "",
                                        "id": ""
                                    },
                                    "choices": {
                                        "Image": "Image",
                                        "Post": "Post",
                                        "Custom": "Custom"
                                    },
                                    "default_value": [],
                                    "allow_null": 0,
                                    "multiple": 0,
                                    "ui": 0,
                                    "ajax": 0,
                                    "return_format": "value",
                                    "placeholder": ""
                                },
                                {
                                    "key": "field_597b3068bfa20",
                                    "label": "Post image",
                                    "name": "posts_grid_image",
                                    "type": "image",
                                    "instructions": "",
                                    "required": 0,
                                    "conditional_logic": 0,
                                    "wrapper": {
                                        "width": "",
                                        "class": "",
                                        "id": ""
                                    },
                                    "return_format": "array",
                                    "preview_size": "thumbnail",
                                    "library": "all",
                                    "min_width": "",
                                    "min_height": "",
                                    "min_size": "",
                                    "max_width": "",
                                    "max_height": "",
                                    "max_size": "",
                                    "mime_types": ""
                                },
                                {
                                    "key": "field_597b30ddbfa22",
                                    "label": "Post link",
                                    "name": "posts_grid_link",
                                    "type": "post_object",
                                    "instructions": "",
                                    "required": 0,
                                    "conditional_logic": [
                                        [
                                            {
                                                "field": "field_597b2fd3bfa1f",
                                                "operator": "==",
                                                "value": "Post"
                                            }
                                        ]
                                    ],
                                    "wrapper": {
                                        "width": "",
                                        "class": "",
                                        "id": ""
                                    },
                                    "post_type": [
                                        "need",
                                        "product"
                                    ],
                                    "taxonomy": [],
                                    "allow_null": 0,
                                    "multiple": 0,
                                    "return_format": "object",
                                    "ui": 1
                                },
                                {
                                    "key": "field_5981a0fecfa37",
                                    "label": "Post title",
                                    "name": "posts_grid_title",
                                    "type": "text",
                                    "instructions": "",
                                    "required": 0,
                                    "conditional_logic": [
                                        [
                                            {
                                                "field": "field_597b2fd3bfa1f",
                                                "operator": "==",
                                                "value": "Custom"
                                            }
                                        ]
                                    ],
                                    "wrapper": {
                                        "width": "",
                                        "class": "",
                                        "id": ""
                                    },
                                    "default_value": "",
                                    "placeholder": "",
                                    "prepend": "",
                                    "append": "",
                                    "maxlength": ""
                                },
                                {
                                    "key": "field_597b311ebfa23",
                                    "label": "Post description",
                                    "name": "posts_grid_description",
                                    "type": "text",
                                    "instructions": "Enter the description, the title will be the selected need post title",
                                    "required": 0,
                                    "conditional_logic": [
                                        [
                                            {
                                                "field": "field_597b2fd3bfa1f",
                                                "operator": "==",
                                                "value": "Post"
                                            }
                                        ],
                                        [
                                            {
                                                "field": "field_597b2fd3bfa1f",
                                                "operator": "==",
                                                "value": "Custom"
                                            }
                                        ]
                                    ],
                                    "wrapper": {
                                        "width": "",
                                        "class": "",
                                        "id": ""
                                    },
                                    "default_value": "",
                                    "placeholder": "",
                                    "prepend": "",
                                    "append": "",
                                    "maxlength": ""
                                },
                                {
                                    "key": "field_5c8a637812465",
                                    "label": "CTA",
                                    "name": "posts_grid_cta",
                                    "type": "link",
                                    "instructions": "If post type \"image\" selected, image becomes clickable with no CTA displayed",
                                    "required": 0,
                                    "conditional_logic": 0,
                                    "wrapper": {
                                        "width": "",
                                        "class": "",
                                        "id": ""
                                    },
                                    "return_format": "array"
                                }
                            ]
                        }
                    ],
                    "min": "",
                    "max": ""
                }
            ]
        }
    ],
    "location": [
        [
            {
                "param": "page_template",
                "operator": "==",
                "value": "login-page.php"
            }
        ]
    ],
    "menu_order": 0,
    "position": "normal",
    "style": "default",
    "label_placement": "top",
    "instruction_placement": "label",
    "hide_on_screen": "",
    "active": 1,
    "description": "",
    "modified": 1553101651
}