{
    "key": "group_5b37efdd53163",
    "title": "Login Dropdown",
    "fields": [
        {
            "key": "field_5b37f048f1ebc",
            "label": "Caption",
            "name": "sxode_login_dropdown_caption",
            "type": "text",
            "instructions": "Displayed in the header of the dropdown",
            "required": 0,
            "conditional_logic": 0,
            "wrapper": {
                "width": "",
                "class": "",
                "id": ""
            },
            "default_value": "",
            "placeholder": "",
            "prepend": "",
            "append": "",
            "maxlength": 80
        },
        {
            "key": "field_5b3cc688a8c26",
            "label": "Introduction text",
            "name": "sxode_login_dropdown_introduction",
            "type": "text",
            "instructions": "Displayed above the login links",
            "required": 0,
            "conditional_logic": 0,
            "wrapper": {
                "width": "",
                "class": "",
                "id": ""
            },
            "default_value": "",
            "placeholder": "",
            "prepend": "",
            "append": "",
            "maxlength": 300
        },
        {
            "key": "field_5b37f0e6f1ebd",
            "label": "Login links",
            "name": "sxode_login_dropdown_links",
            "type": "repeater",
            "instructions": "You can add login links with title and url or headings to group multiple login links together.",
            "required": 1,
            "conditional_logic": 0,
            "wrapper": {
                "width": "",
                "class": "",
                "id": ""
            },
            "collapsed": "",
            "min": 1,
            "max": 10,
            "layout": "table",
            "button_label": "Add link\/heading",
            "sub_fields": [
                {
                    "key": "field_5b3cc6cba8c27",
                    "label": "Type",
                    "name": "type",
                    "type": "select",
                    "instructions": "",
                    "required": 1,
                    "conditional_logic": 0,
                    "wrapper": {
                        "width": "15",
                        "class": "",
                        "id": ""
                    },
                    "choices": {
                        "link": "Link",
                        "heading": "Heading"
                    },
                    "default_value": [
                        "link"
                    ],
                    "allow_null": 0,
                    "multiple": 0,
                    "ui": 0,
                    "ajax": 0,
                    "return_format": "value",
                    "placeholder": ""
                },
                {
                    "key": "field_5b37f166f1ebf",
                    "label": "Title",
                    "name": "title",
                    "type": "text",
                    "instructions": "",
                    "required": 1,
                    "conditional_logic": 0,
                    "wrapper": {
                        "width": "",
                        "class": "",
                        "id": ""
                    },
                    "default_value": "",
                    "placeholder": "",
                    "prepend": "",
                    "append": "",
                    "maxlength": 50
                },
                {
                    "key": "field_5b37f149f1ebe",
                    "label": "URL",
                    "name": "url",
                    "type": "url",
                    "instructions": "",
                    "required": 1,
                    "conditional_logic": [
                        [
                            {
                                "field": "field_5b3cc6cba8c27",
                                "operator": "==",
                                "value": "link"
                            }
                        ]
                    ],
                    "wrapper": {
                        "width": "",
                        "class": "",
                        "id": ""
                    },
                    "default_value": "",
                    "placeholder": ""
                }
            ]
        },
        {
            "key": "field_5b37fe35d14c1",
            "label": "Open links in new window",
            "name": "sxode_login_dropdown_target_blank",
            "type": "true_false",
            "instructions": "",
            "required": 0,
            "conditional_logic": 0,
            "wrapper": {
                "width": "",
                "class": "",
                "id": ""
            },
            "message": "",
            "default_value": 1,
            "ui": 1,
            "ui_on_text": "",
            "ui_off_text": ""
        }
    ],
    "location": [
        [
            {
                "param": "options_page",
                "operator": "==",
                "value": "acf-options-login-dropdown"
            }
        ]
    ],
    "menu_order": 0,
    "position": "normal",
    "style": "seamless",
    "label_placement": "top",
    "instruction_placement": "label",
    "hide_on_screen": "",
    "active": 1,
    "description": "",
    "modified": 1530719636
}