{
  "key": "group_595e5803109ef",
  "title": "Block - Posts grid",
  "fields": [
    {
      "key": "field_595f97ba9033b",
      "label": "Show post grid",
      "name": "posts_grid_show_title_page",
      "type": "true_false",
      "instructions": "",
      "required": 0,
      "conditional_logic": 0,
      "wrapper": {
        "width": "",
        "class": "",
        "id": ""
      },
      "message": "",
      "default_value": 1,
      "ui": 1,
      "ui_on_text": "",
      "ui_off_text": ""
    },
    {
      "key": "field_597b05211ff15",
      "label": "Block title",
      "name": "posts_grid_block_title",
      "type": "text",
      "instructions": "",
      "required": 0,
      "conditional_logic": [
        [
          {
            "field": "field_595f97ba9033b",
            "operator": "==",
            "value": "1"
          }
        ]
      ],
      "wrapper": {
        "width": "",
        "class": "",
        "id": ""
      },
      "default_value": "",
      "placeholder": "",
      "prepend": "",
      "append": "",
      "maxlength": ""
    },
    {
      "key": "field_595e603a8af1d",
      "label": "Posts grid item",
      "name": "posts_grid",
      "type": "repeater",
      "instructions": "",
      "required": 0,
      "conditional_logic": 0,
      "wrapper": {
        "width": "",
        "class": "",
        "id": ""
      },
      "collapsed": "field_595e605a8af1e",
      "min": 0,
      "max": 0,
      "layout": "row",
      "button_label": "",
      "sub_fields": [
        {
          "key": "field_595e605a8af1e",
          "label": "Post type",
          "name": "posts_grid_type",
          "type": "select",
          "instructions": "",
          "required": 0,
          "conditional_logic": 0,
          "wrapper": {
            "width": "",
            "class": "",
            "id": ""
          },
          "choices": {
            "Image": "Image",
            "Post": "Post"
          },
          "default_value": [],
          "allow_null": 0,
          "multiple": 0,
          "ui": 0,
          "ajax": 0,
          "return_format": "value",
          "placeholder": ""
        },
        {
          "key": "field_595e60df8af1f",
          "label": "Post image",
          "name": "posts_grid_image",
          "type": "image",
          "instructions": "",
          "required": 0,
          "conditional_logic": 0,
          "wrapper": {
            "width": "",
            "class": "",
            "id": ""
          },
          "return_format": "array",
          "preview_size": "thumbnail",
          "library": "all",
          "min_width": "",
          "min_height": "",
          "min_size": "",
          "max_width": "",
          "max_height": "",
          "max_size": "",
          "mime_types": ""
        },
        {
          "key": "field_5977056670d0d",
          "label": "Image link",
          "name": "posts_grid_image_link",
          "type": "link",
          "instructions": "",
          "required": 0,
          "conditional_logic": [
            [
              {
                "field": "field_595e605a8af1e",
                "operator": "==",
                "value": "Image"
              }
            ]
          ],
          "wrapper": {
            "width": "",
            "class": "",
            "id": ""
          },
          "return_format": "url"
        },
        {
          "key": "field_595e611f8af20",
          "label": "Post link",
          "name": "posts_grid_link",
          "type": "post_object",
          "instructions": "",
          "required": 0,
          "conditional_logic": [
            [
              {
                "field": "field_595e605a8af1e",
                "operator": "==",
                "value": "Post"
              }
            ]
          ],
          "wrapper": {
            "width": "",
            "class": "",
            "id": ""
          },
          "post_type": [
            "need",
            "product"
          ],
          "taxonomy": [],
          "allow_null": 0,
          "multiple": 0,
          "return_format": "object",
          "ui": 1
        },
        {
          "key": "field_595f8799af605",
          "label": "Post description",
          "name": "posts_grid_description",
          "type": "text",
          "instructions": "Enter the description, the title will be the selected need post title",
          "required": 0,
          "conditional_logic": [
            [
              {
                "field": "field_595e605a8af1e",
                "operator": "==",
                "value": "Post"
              }
            ]
          ],
          "wrapper": {
            "width": "",
            "class": "",
            "id": ""
          },
          "default_value": "",
          "placeholder": "",
          "prepend": "",
          "append": "",
          "maxlength": ""
        },
        {
          "key": "field_5c8a641b07920",
          "label": "CTA",
          "name": "posts_grid_cta",
          "type": "link",
          "instructions": "",
          "required": 0,
          "conditional_logic": 0,
          "wrapper": {
            "width": "",
            "class": "",
            "id": ""
          },
          "return_format": "array"
        }
      ]
    }
  ],
  "location": [
    [
      {
        "param": "post_template",
        "operator": "==",
        "value": "your-needs.php"
      }
    ],
    [
      {
        "param": "post_template",
        "operator": "==",
        "value": "our-leisure-offers.php"
      }
    ],
    [
      {
        "param": "post_template",
        "operator": "==",
        "value": "all-our-solutions.php"
      }
    ]
  ],
  "menu_order": 0,
  "position": "normal",
  "style": "default",
  "label_placement": "top",
  "instruction_placement": "label",
  "hide_on_screen": "",
  "active": 1,
  "description": "",
  "modified": 1552573503
}