{
    "key": "group_598091aa403be",
    "title": "Simulators Send by mail",
    "fields": [
        {
            "key": "field_598091b11e6a3",
            "label": "Mail Subject",
            "name": "pdf_mail_subject",
            "type": "text",
            "instructions": "Subject on the mail",
            "required": 1,
            "conditional_logic": 0,
            "wrapper": {
                "width": "",
                "class": "",
                "id": ""
            },
            "default_value": "Sodexo - Your simulation",
            "placeholder": "Your mail subject",
            "prepend": "",
            "append": "",
            "maxlength": ""
        },
        {
            "key": "field_5980920b1e6a4",
            "label": "Message",
            "name": "pdf_message",
            "type": "wysiwyg",
            "instructions": "Message on the simulation pdf mail",
            "required": 0,
            "conditional_logic": 0,
            "wrapper": {
                "width": "",
                "class": "",
                "id": ""
            },
            "default_value": "",
            "tabs": "all",
            "toolbar": "full",
            "media_upload": 1,
            "delay": 0
        },
        {
            "key": "field_598092281e6a5",
            "label": "Email From",
            "name": "pdf_email_from",
            "type": "email",
            "instructions": "Sender mail adress",
            "required": 1,
            "conditional_logic": 0,
            "wrapper": {
                "width": "",
                "class": "",
                "id": ""
            },
            "default_value": "",
            "placeholder": "",
            "prepend": "",
            "append": ""
        },
        {
            "key": "field_5980924c1e6a6",
            "label": "Mail copy",
            "name": "pdf_mail_cc",
            "type": "text",
            "instructions": "Email on copy for the estimations",
            "required": 0,
            "conditional_logic": 0,
            "wrapper": {
                "width": "",
                "class": "",
                "id": ""
            },
            "default_value": "",
            "placeholder": "",
            "prepend": "",
            "append": "",
            "maxlength": ""
        },
        {
            "key": "field_5980927d1e6a7",
            "label": "url adress for the form action",
            "name": "pdf_action_url_adress",
            "type": "text",
            "instructions": "Adress for the pdf.php file on the simulator plugin\r\n(ex: \/app\/plugins\/dlbi-sodexo-spain-simulator\/ajax\/pdf.php)",
            "required": 1,
            "conditional_logic": 0,
            "wrapper": {
                "width": "",
                "class": "",
                "id": ""
            },
            "default_value": "",
            "placeholder": "",
            "prepend": "",
            "append": "",
            "maxlength": ""
        },
        {
            "key": "field_598093181e6a8",
            "label": "Modal title",
            "name": "pdf_modal_title",
            "type": "text",
            "instructions": "Title on the popin",
            "required": 0,
            "conditional_logic": 0,
            "wrapper": {
                "width": "",
                "class": "",
                "id": ""
            },
            "default_value": "Send by email",
            "placeholder": "",
            "prepend": "",
            "append": "",
            "maxlength": ""
        },
        {
            "key": "field_598093371e6a9",
            "label": "Email field error message",
            "name": "pdf_email_field_error_message",
            "type": "text",
            "instructions": "Error message for the email field",
            "required": 0,
            "conditional_logic": 0,
            "wrapper": {
                "width": "",
                "class": "",
                "id": ""
            },
            "default_value": "Please enter your email",
            "placeholder": "",
            "prepend": "",
            "append": "",
            "maxlength": ""
        },
        {
            "key": "field_598093871e6aa",
            "label": "Modal close text",
            "name": "pdf_modal_close_text",
            "type": "text",
            "instructions": "",
            "required": 0,
            "conditional_logic": 0,
            "wrapper": {
                "width": "",
                "class": "",
                "id": ""
            },
            "default_value": "Close",
            "placeholder": "",
            "prepend": "",
            "append": "",
            "maxlength": ""
        },
        {
            "key": "field_59818e4e46cdc",
            "label": "pdf modal success",
            "name": "pdf_email_success",
            "type": "text",
            "instructions": "Text message displayed in case of success",
            "required": 0,
            "conditional_logic": 0,
            "wrapper": {
                "width": "",
                "class": "",
                "id": ""
            },
            "default_value": "Your estimation was sent by email !",
            "placeholder": "",
            "prepend": "",
            "append": "",
            "maxlength": ""
        },
        {
            "key": "field_5981905746cdd",
            "label": "pdf modal error",
            "name": "pdf_email_error",
            "type": "text",
            "instructions": "Text message displayed in case of error",
            "required": 0,
            "conditional_logic": 0,
            "wrapper": {
                "width": "",
                "class": "",
                "id": ""
            },
            "default_value": "Error to send your simulation. Please try again.",
            "placeholder": "",
            "prepend": "",
            "append": "",
            "maxlength": ""
        },
        {
            "key": "field_5981919646cde",
            "label": "modal_text_content",
            "name": "modal_text_content",
            "type": "wysiwyg",
            "instructions": "Content displayed on the modal box",
            "required": 0,
            "conditional_logic": 0,
            "wrapper": {
                "width": "",
                "class": "",
                "id": ""
            },
            "default_value": "Please enter your email bellow",
            "tabs": "all",
            "toolbar": "full",
            "media_upload": 1,
            "delay": 0
        },
        {
            "key": "field_5ba38edc2a1cc",
            "label": "PDF - Delivery fee label",
            "name": "pdf_delivery_fee_label",
            "type": "text",
            "instructions": "Displays a label at the end of the file about the delivery fee (or something else)",
            "required": 0,
            "conditional_logic": 0,
            "wrapper": {
                "width": "",
                "class": "",
                "id": ""
            },
            "default_value": "",
            "placeholder": "",
            "prepend": "",
            "append": "",
            "maxlength": 1000
        },
        {
            "key": "field_5983008515a02",
            "label": "Simulator - Download label",
            "name": "simulator_download_label",
            "type": "text",
            "instructions": "",
            "required": 0,
            "conditional_logic": 0,
            "wrapper": {
                "width": "",
                "class": "",
                "id": ""
            },
            "default_value": "",
            "placeholder": "",
            "prepend": "",
            "append": "",
            "maxlength": ""
        },
        {
            "key": "field_598300be15a03",
            "label": "Simulator - Be contacted label",
            "name": "simulator_be_contacted_label",
            "type": "text",
            "instructions": "",
            "required": 0,
            "conditional_logic": 0,
            "wrapper": {
                "width": "",
                "class": "",
                "id": ""
            },
            "default_value": "",
            "placeholder": "",
            "prepend": "",
            "append": "",
            "maxlength": ""
        },
        {
            "key": "field_598300d315a04",
            "label": "Simulator - legend",
            "name": "simulator_legend",
            "type": "text",
            "instructions": "",
            "required": 0,
            "conditional_logic": 0,
            "wrapper": {
                "width": "",
                "class": "",
                "id": ""
            },
            "default_value": "",
            "placeholder": "",
            "prepend": "",
            "append": "",
            "maxlength": ""
        },
        {
            "key": "field_59b644b6407d1",
            "label": "Simulator - Place an order label",
            "name": "simulator_place_an_order_label",
            "type": "text",
            "instructions": "",
            "required": 0,
            "conditional_logic": 0,
            "wrapper": {
                "width": "",
                "class": "",
                "id": ""
            },
            "default_value": "",
            "placeholder": "",
            "prepend": "",
            "append": "",
            "maxlength": ""
        },
        {
            "key": "field_59b644ddf92dd",
            "label": "Simulator - Place an order link",
            "name": "simulator_place_an_order_link",
            "type": "url",
            "instructions": "",
            "required": 0,
            "conditional_logic": 0,
            "wrapper": {
                "width": "",
                "class": "",
                "id": ""
            },
            "default_value": "",
            "placeholder": ""
        },
        {
            "key": "field_59ba7b6659b56",
            "label": "Simulator - Simulator - Logo",
            "name": "simulator_logo",
            "type": "image",
            "instructions": "200*70",
            "required": 0,
            "conditional_logic": 0,
            "wrapper": {
                "width": "",
                "class": "",
                "id": ""
            },
            "return_format": "array",
            "preview_size": "thumbnail",
            "library": "all",
            "min_width": "",
            "min_height": "",
            "min_size": "",
            "max_width": "",
            "max_height": "",
            "max_size": "",
            "mime_types": ""
        },
        {
            "key": "field_59ba7c2659b57",
            "label": "Simulator - Link",
            "name": "simulator_link",
            "type": "link",
            "instructions": "",
            "required": 0,
            "conditional_logic": 0,
            "wrapper": {
                "width": "",
                "class": "",
                "id": ""
            },
            "return_format": "array"
        }
    ],
    "location": [
        [
            {
                "param": "options_page",
                "operator": "==",
                "value": "acf-options-simulators-send-by-mail"
            }
        ]
    ],
    "menu_order": 0,
    "position": "normal",
    "style": "default",
    "label_placement": "top",
    "instruction_placement": "label",
    "hide_on_screen": "",
    "active": 1,
    "description": "",
    "modified": 1537948512
}